Environmental Correlates of Breeding Bird Species Richness
…
Map of environmental variables

Your code

Determine species richness for each site

Your code

## Joining, by = c("statenum", "route")

Your code

## # A tibble: 3,251 x 14
## # Groups:   statenum [?]
##    statenum route richness countrynum routename active latitude longitude
##       <int> <int>    <int>      <int> <fct>      <int>    <dbl>     <dbl>
##  1        2     1       70        840 ST FLORI      1     34.9     -87.6
##  2        2     4       56        840 TRADE          1     34.0     -87.1
##  3        2     7       62        840 SWAIM          1     34.9     -86.2
##  4        2     8       68        840 PINE GRO      1     34.0     -85.7
##  5        2    10       63        840 MILLERVI      1     33.2     -85.9
##  6        2    12       55        840 SUNNY EVE      1     33.6     -85.8
##  7        2    14       59        840 SMYER LA      1     33.5     -86.6
##  8        2    15       51        840 MT OLIVE       1     33.7     -86.9
##  9        2    16       59        840 HOWARD         1     33.8     -87.6
## 10        2    17       55        840 MAYTOWN        1     33.5     -87.0
## # ... with 3,241 more rows, and 6 more variables: stratum <int>,
## #   bcr <int>, routetypeid <int>, routetypedetailid <int>, bio1 <dbl>,
## #   bio12 <dbl>
…
