…
[427] 125939.133         NA         NA  14393.863         NA  62045.506
[433]  60194.052  36753.957         NA         NA  32061.537         NA
[439]  67466.670  17627.746  24171.682  25917.752  67098.902         NA
[445]  17699.295  18903.752  13127.745  17295.450  42209.926  23426.667
[451] 118937.988         NA  18165.832         NA  46816.660         NA
[457]  53237.908  23121.375  25937.746         NA  47637.068         NA
[463] 127540.554         NA  12313.099  24276.516  15500.675  16109.794
[469]  15965.471  54296.492         NA         NA  14365.977 153749.934
[475]  59143.016  18524.301   6227.675  13606.978         NA         NA
[481]  49146.996 103896.484  38059.728  41076.716         NA  30013.153
[487]  41805.513  20113.277  24071.440         NA         NA   8489.727
[493]  24349.181         NA         NA  44921.367  26262.993  16883.382
[499]  14444.693         NA

# A tibble: 500 x 3
   species      lengths masses
   <fct>          <dbl>  <dbl>
 1 Stegosauria     18.5 24342.
 2 Ankylosauria    16.4    NA 
 3 Ankylosauria    23.7    NA 
 4 Sauropoda       23.9 22114.
 5 Ankylosauria    21.7    NA 
 6 Ankylosauria    21.4    NA 
 7 Theropoda       22.3 57349.
 8 Theropoda       15.2 14160.
 9 Theropoda       21.4 49678.
10 Stegosauria     22.8 42106.
# … with 490 more rows
