…
# A tibble: 340 x 3
# Groups:   species_id [25]
   species_id  year `mean(hindfoot_length)`
   <chr>      <int>                   <dbl>
 1 AH          1999                    35  
 2 AH          2000                    31  
 3 BA          1989                    13  
 4 BA          1990                    13.8
 5 BA          1991                    12.9
 6 BA          1992                    12  
 7 DM          1977                    35.7
 8 DM          1978                    36.1
 9 DM          1979                    35.9
10 DM          1980                    35.8
# … with 330 more rows
…
